<mxfile host="app.diagrams.net" modified="2020-12-08T14:57:37.991Z" agent="5.0 (Windows NT 10.0; Win64; x64) AppleWebKit/537.36 (KHTML, like Gecko) Chrome/87.0.4280.88 Safari/537.36" etag="HBW1XPmtTxuruLx0-LJ7" version="13.10.9" type="gitlab">
  <diagram id="azZDyDFSV7n1TPZ401OC" name="Page-1">
    <mxGraphModel dx="865" dy="1652" grid="1" gridSize="10" guides="1" tooltips="1" connect="1" arrows="1" fold="1" page="1" pageScale="1" pageWidth="827" pageHeight="1169" math="0" shadow="0">
      <root>
        <mxCell id="0" />
        <mxCell id="1" parent="0" />
        <mxCell id="s7xaixTbj5X07XG7akU2-1" value="Клиент" style="shape=umlActor;verticalLabelPosition=bottom;verticalAlign=top;html=1;outlineConnect=0;" parent="1" vertex="1">
          <mxGeometry x="520" y="10" width="30" height="60" as="geometry" />
        </mxCell>
        <mxCell id="s7xaixTbj5X07XG7akU2-2" value="Админ" style="shape=umlActor;verticalLabelPosition=bottom;verticalAlign=top;html=1;outlineConnect=0;" parent="1" vertex="1">
          <mxGeometry x="40" y="580" width="30" height="60" as="geometry" />
        </mxCell>
        <mxCell id="s7xaixTbj5X07XG7akU2-3" value="" style="shape=umlActor;verticalLabelPosition=bottom;verticalAlign=top;html=1;outlineConnect=0;" parent="1" vertex="1">
          <mxGeometry x="770" y="580" width="30" height="60" as="geometry" />
        </mxCell>
        <mxCell id="s7xaixTbj5X07XG7akU2-4" value="Кассы" style="shape=umlActor;verticalLabelPosition=bottom;verticalAlign=top;html=1;outlineConnect=0;" parent="1" vertex="1">
          <mxGeometry x="780" y="580" width="27" height="60" as="geometry" />
        </mxCell>
        <mxCell id="s7xaixTbj5X07XG7akU2-5" value="" style="shape=umlActor;verticalLabelPosition=bottom;verticalAlign=top;html=1;outlineConnect=0;" parent="1" vertex="1">
          <mxGeometry x="790" y="580" width="30" height="60" as="geometry" />
        </mxCell>
        <mxCell id="s7xaixTbj5X07XG7akU2-9" value="Отчёт по билетам" style="ellipse;whiteSpace=wrap;html=1;" parent="1" vertex="1">
          <mxGeometry x="360" y="740" width="120" height="30" as="geometry" />
        </mxCell>
        <mxCell id="s7xaixTbj5X07XG7akU2-10" value="" style="endArrow=classic;html=1;exitX=1;exitY=1;exitDx=0;exitDy=0;exitPerimeter=0;entryX=0;entryY=0.5;entryDx=0;entryDy=0;" parent="1" source="s7xaixTbj5X07XG7akU2-2" target="s7xaixTbj5X07XG7akU2-9" edge="1">
          <mxGeometry width="50" height="50" relative="1" as="geometry">
            <mxPoint x="430" y="590" as="sourcePoint" />
            <mxPoint x="480" y="540" as="targetPoint" />
          </mxGeometry>
        </mxCell>
        <mxCell id="s7xaixTbj5X07XG7akU2-11" value="" style="endArrow=classic;html=1;exitX=0;exitY=1;exitDx=0;exitDy=0;exitPerimeter=0;entryX=1;entryY=0.5;entryDx=0;entryDy=0;" parent="1" source="s7xaixTbj5X07XG7akU2-5" target="s7xaixTbj5X07XG7akU2-9" edge="1">
          <mxGeometry width="50" height="50" relative="1" as="geometry">
            <mxPoint x="430" y="590" as="sourcePoint" />
            <mxPoint x="480" y="540" as="targetPoint" />
          </mxGeometry>
        </mxCell>
        <mxCell id="s7xaixTbj5X07XG7akU2-12" value="Закрытие кассы" style="ellipse;whiteSpace=wrap;html=1;" parent="1" vertex="1">
          <mxGeometry x="354" y="670" width="120" height="30" as="geometry" />
        </mxCell>
        <mxCell id="s7xaixTbj5X07XG7akU2-13" value="" style="endArrow=classic;html=1;exitX=1;exitY=1;exitDx=0;exitDy=0;exitPerimeter=0;entryX=0;entryY=0.5;entryDx=0;entryDy=0;" parent="1" source="s7xaixTbj5X07XG7akU2-2" target="s7xaixTbj5X07XG7akU2-12" edge="1">
          <mxGeometry width="50" height="50" relative="1" as="geometry">
            <mxPoint x="430" y="590" as="sourcePoint" />
            <mxPoint x="480" y="540" as="targetPoint" />
          </mxGeometry>
        </mxCell>
        <mxCell id="s7xaixTbj5X07XG7akU2-14" value="" style="endArrow=classic;html=1;exitX=0;exitY=1;exitDx=0;exitDy=0;exitPerimeter=0;entryX=1;entryY=0.5;entryDx=0;entryDy=0;" parent="1" source="s7xaixTbj5X07XG7akU2-4" target="s7xaixTbj5X07XG7akU2-12" edge="1">
          <mxGeometry width="50" height="50" relative="1" as="geometry">
            <mxPoint x="430" y="590" as="sourcePoint" />
            <mxPoint x="480" y="540" as="targetPoint" />
          </mxGeometry>
        </mxCell>
        <mxCell id="s7xaixTbj5X07XG7akU2-15" value="" style="endArrow=none;dashed=1;html=1;dashPattern=1 3;strokeWidth=2;exitX=0.5;exitY=0;exitDx=0;exitDy=0;" parent="1" source="s7xaixTbj5X07XG7akU2-12" target="s7xaixTbj5X07XG7akU2-16" edge="1">
          <mxGeometry width="50" height="50" relative="1" as="geometry">
            <mxPoint x="430" y="590" as="sourcePoint" />
            <mxPoint x="414" y="640" as="targetPoint" />
          </mxGeometry>
        </mxCell>
        <mxCell id="s7xaixTbj5X07XG7akU2-16" value="Все текущие клиенты обслужены" style="ellipse;whiteSpace=wrap;html=1;fillColor=#d5e8d4;strokeColor=#82b366;" parent="1" vertex="1">
          <mxGeometry x="324" y="610" width="180" height="30" as="geometry" />
        </mxCell>
        <mxCell id="s7xaixTbj5X07XG7akU2-17" value="вкл" style="text;html=1;strokeColor=none;fillColor=none;align=center;verticalAlign=middle;whiteSpace=wrap;rounded=0;rotation=90;" parent="1" vertex="1">
          <mxGeometry x="405" y="645" width="30" height="20" as="geometry" />
        </mxCell>
        <mxCell id="s7xaixTbj5X07XG7akU2-18" value="Закрытие кассы на ТП" style="ellipse;whiteSpace=wrap;html=1;" parent="1" vertex="1">
          <mxGeometry x="270" y="510" width="135" height="30" as="geometry" />
        </mxCell>
        <mxCell id="s7xaixTbj5X07XG7akU2-19" value="" style="endArrow=classic;html=1;exitX=0;exitY=1;exitDx=0;exitDy=0;exitPerimeter=0;entryX=1;entryY=0.5;entryDx=0;entryDy=0;" parent="1" source="s7xaixTbj5X07XG7akU2-3" target="s7xaixTbj5X07XG7akU2-18" edge="1">
          <mxGeometry width="50" height="50" relative="1" as="geometry">
            <mxPoint x="330" y="580" as="sourcePoint" />
            <mxPoint x="380" y="530" as="targetPoint" />
          </mxGeometry>
        </mxCell>
        <mxCell id="s7xaixTbj5X07XG7akU2-20" value="" style="endArrow=classic;html=1;exitX=1;exitY=1;exitDx=0;exitDy=0;exitPerimeter=0;entryX=0;entryY=0.5;entryDx=0;entryDy=0;" parent="1" source="s7xaixTbj5X07XG7akU2-2" target="s7xaixTbj5X07XG7akU2-18" edge="1">
          <mxGeometry width="50" height="50" relative="1" as="geometry">
            <mxPoint x="330" y="580" as="sourcePoint" />
            <mxPoint x="380" y="530" as="targetPoint" />
          </mxGeometry>
        </mxCell>
        <mxCell id="s7xaixTbj5X07XG7akU2-21" value="" style="endArrow=none;dashed=1;html=1;dashPattern=1 3;strokeWidth=2;exitX=0.5;exitY=0;exitDx=0;exitDy=0;entryX=0.5;entryY=1;entryDx=0;entryDy=0;" parent="1" source="s7xaixTbj5X07XG7akU2-16" target="s7xaixTbj5X07XG7akU2-18" edge="1">
          <mxGeometry width="50" height="50" relative="1" as="geometry">
            <mxPoint x="330" y="580" as="sourcePoint" />
            <mxPoint x="380" y="530" as="targetPoint" />
          </mxGeometry>
        </mxCell>
        <mxCell id="s7xaixTbj5X07XG7akU2-22" value="вкл" style="text;html=1;strokeColor=none;fillColor=none;align=center;verticalAlign=middle;whiteSpace=wrap;rounded=0;rotation=45;" parent="1" vertex="1">
          <mxGeometry x="354" y="565.96" width="30" height="18.54" as="geometry" />
        </mxCell>
        <mxCell id="s7xaixTbj5X07XG7akU2-24" value="Должна работать хотя бы 1 другая касса" style="ellipse;whiteSpace=wrap;html=1;fillColor=#d5e8d4;strokeColor=#82b366;" parent="1" vertex="1">
          <mxGeometry x="400" y="470" width="230" height="30" as="geometry" />
        </mxCell>
        <mxCell id="s7xaixTbj5X07XG7akU2-25" value="" style="endArrow=none;dashed=1;html=1;dashPattern=1 3;strokeWidth=2;entryX=0;entryY=0.5;entryDx=0;entryDy=0;exitX=1;exitY=0;exitDx=0;exitDy=0;" parent="1" source="s7xaixTbj5X07XG7akU2-18" target="s7xaixTbj5X07XG7akU2-24" edge="1">
          <mxGeometry width="50" height="50" relative="1" as="geometry">
            <mxPoint x="410" y="525" as="sourcePoint" />
            <mxPoint x="370" y="540" as="targetPoint" />
          </mxGeometry>
        </mxCell>
        <mxCell id="s7xaixTbj5X07XG7akU2-26" value="вкл" style="text;html=1;strokeColor=none;fillColor=none;align=center;verticalAlign=middle;whiteSpace=wrap;rounded=0;rotation=-65;" parent="1" vertex="1">
          <mxGeometry x="370" y="491.46000000000004" width="30" height="18.54" as="geometry" />
        </mxCell>
        <mxCell id="s7xaixTbj5X07XG7akU2-27" value="Покупка/Продажа билета" style="ellipse;whiteSpace=wrap;html=1;" parent="1" vertex="1">
          <mxGeometry x="560" y="240" width="135" height="30" as="geometry" />
        </mxCell>
        <mxCell id="s7xaixTbj5X07XG7akU2-28" value="" style="endArrow=classic;html=1;exitX=0.25;exitY=0.1;exitDx=0;exitDy=0;exitPerimeter=0;" parent="1" source="s7xaixTbj5X07XG7akU2-5" target="s7xaixTbj5X07XG7akU2-27" edge="1">
          <mxGeometry width="50" height="50" relative="1" as="geometry">
            <mxPoint x="450" y="350" as="sourcePoint" />
            <mxPoint x="500" y="300" as="targetPoint" />
          </mxGeometry>
        </mxCell>
        <mxCell id="s7xaixTbj5X07XG7akU2-29" value="" style="endArrow=classic;html=1;exitX=1;exitY=1;exitDx=0;exitDy=0;exitPerimeter=0;entryX=0.5;entryY=0;entryDx=0;entryDy=0;" parent="1" source="s7xaixTbj5X07XG7akU2-1" target="s7xaixTbj5X07XG7akU2-27" edge="1">
          <mxGeometry width="50" height="50" relative="1" as="geometry">
            <mxPoint x="450" y="350" as="sourcePoint" />
            <mxPoint x="500" y="300" as="targetPoint" />
          </mxGeometry>
        </mxCell>
        <mxCell id="s7xaixTbj5X07XG7akU2-30" value="Есть свободное место" style="ellipse;whiteSpace=wrap;html=1;fillColor=#d5e8d4;strokeColor=#82b366;" parent="1" vertex="1">
          <mxGeometry x="435" y="320" width="180" height="30" as="geometry" />
        </mxCell>
        <mxCell id="s7xaixTbj5X07XG7akU2-31" value="" style="endArrow=none;dashed=1;html=1;dashPattern=1 3;strokeWidth=2;entryX=0;entryY=1;entryDx=0;entryDy=0;exitX=0.5;exitY=0;exitDx=0;exitDy=0;" parent="1" source="s7xaixTbj5X07XG7akU2-30" target="s7xaixTbj5X07XG7akU2-27" edge="1">
          <mxGeometry width="50" height="50" relative="1" as="geometry">
            <mxPoint x="550" y="350" as="sourcePoint" />
            <mxPoint x="600" y="300" as="targetPoint" />
          </mxGeometry>
        </mxCell>
        <mxCell id="s7xaixTbj5X07XG7akU2-32" value="вкл" style="text;html=1;strokeColor=none;fillColor=none;align=center;verticalAlign=middle;whiteSpace=wrap;rounded=0;rotation=-45;" parent="1" vertex="1">
          <mxGeometry x="530" y="280" width="30" height="18.54" as="geometry" />
        </mxCell>
        <mxCell id="s7xaixTbj5X07XG7akU2-33" value="Наличие паспорта" style="ellipse;whiteSpace=wrap;html=1;fillColor=#d5e8d4;strokeColor=#82b366;" parent="1" vertex="1">
          <mxGeometry x="695" y="340" width="180" height="30" as="geometry" />
        </mxCell>
        <mxCell id="s7xaixTbj5X07XG7akU2-34" value="" style="endArrow=none;dashed=1;html=1;dashPattern=1 3;strokeWidth=2;entryX=1;entryY=0;entryDx=0;entryDy=0;exitX=0;exitY=0;exitDx=0;exitDy=0;" parent="1" source="s7xaixTbj5X07XG7akU2-33" target="s7xaixTbj5X07XG7akU2-27" edge="1">
          <mxGeometry width="50" height="50" relative="1" as="geometry">
            <mxPoint x="550" y="350" as="sourcePoint" />
            <mxPoint x="600" y="300" as="targetPoint" />
          </mxGeometry>
        </mxCell>
        <mxCell id="s7xaixTbj5X07XG7akU2-35" value="вкл" style="text;html=1;strokeColor=none;fillColor=none;align=center;verticalAlign=middle;whiteSpace=wrap;rounded=0;rotation=65;" parent="1" vertex="1">
          <mxGeometry x="695" y="290" width="30" height="18.54" as="geometry" />
        </mxCell>
        <mxCell id="s7xaixTbj5X07XG7akU2-37" value="Скидка" style="ellipse;whiteSpace=wrap;html=1;fillColor=#fff2cc;strokeColor=#d6b656;" parent="1" vertex="1">
          <mxGeometry x="174" y="70" width="150" height="40" as="geometry" />
        </mxCell>
        <mxCell id="s7xaixTbj5X07XG7akU2-38" value="" style="endArrow=none;dashed=1;html=1;dashPattern=1 3;strokeWidth=2;exitX=1;exitY=0.5;exitDx=0;exitDy=0;entryX=0;entryY=0;entryDx=0;entryDy=0;" parent="1" source="s7xaixTbj5X07XG7akU2-37" target="s7xaixTbj5X07XG7akU2-27" edge="1">
          <mxGeometry width="50" height="50" relative="1" as="geometry">
            <mxPoint x="550" y="350" as="sourcePoint" />
            <mxPoint x="600" y="300" as="targetPoint" />
          </mxGeometry>
        </mxCell>
        <mxCell id="s7xaixTbj5X07XG7akU2-39" value="расш" style="text;html=1;strokeColor=none;fillColor=none;align=center;verticalAlign=middle;whiteSpace=wrap;rounded=0;rotation=35;" parent="1" vertex="1">
          <mxGeometry x="435" y="150.00000000000003" width="30" height="18.54" as="geometry" />
        </mxCell>
        <mxCell id="s7xaixTbj5X07XG7akU2-41" style="edgeStyle=orthogonalEdgeStyle;rounded=0;orthogonalLoop=1;jettySize=auto;html=1;exitX=0;exitY=0;exitDx=150;exitDy=65;exitPerimeter=0;entryX=1;entryY=1;entryDx=0;entryDy=0;dashed=1;endArrow=none;endFill=0;" parent="1" source="s7xaixTbj5X07XG7akU2-40" target="s7xaixTbj5X07XG7akU2-39" edge="1">
          <mxGeometry relative="1" as="geometry" />
        </mxCell>
        <mxCell id="s7xaixTbj5X07XG7akU2-40" value="&lt;b&gt;Условие&lt;/b&gt;: наличие студенческого/пенсионного&lt;br&gt;&lt;br&gt;&lt;b&gt;Расширение&lt;/b&gt;: получение скидки на покупку билета" style="shape=note;whiteSpace=wrap;html=1;backgroundOutline=1;darkOpacity=0.05;align=left;fillColor=#6d8764;strokeColor=#3A5431;fontColor=#ffffff;" parent="1" vertex="1">
          <mxGeometry x="190" y="168.54" width="150" height="100" as="geometry" />
        </mxCell>
        <mxCell id="s7xaixTbj5X07XG7akU2-42" value="Возврат билета" style="ellipse;whiteSpace=wrap;html=1;" parent="1" vertex="1">
          <mxGeometry x="890" y="298.54" width="135" height="30" as="geometry" />
        </mxCell>
        <mxCell id="s7xaixTbj5X07XG7akU2-44" value="" style="endArrow=classic;html=1;exitX=1;exitY=0.3333333333333333;exitDx=0;exitDy=0;exitPerimeter=0;entryX=0.321;entryY=0.97;entryDx=0;entryDy=0;entryPerimeter=0;" parent="1" source="s7xaixTbj5X07XG7akU2-5" target="s7xaixTbj5X07XG7akU2-42" edge="1">
          <mxGeometry width="50" height="50" relative="1" as="geometry">
            <mxPoint x="550" y="320" as="sourcePoint" />
            <mxPoint x="600" y="270" as="targetPoint" />
          </mxGeometry>
        </mxCell>
        <mxCell id="s7xaixTbj5X07XG7akU2-45" value="" style="endArrow=classic;html=1;exitX=1;exitY=0.3333333333333333;exitDx=0;exitDy=0;exitPerimeter=0;entryX=0.301;entryY=0.102;entryDx=0;entryDy=0;entryPerimeter=0;" parent="1" source="s7xaixTbj5X07XG7akU2-1" target="s7xaixTbj5X07XG7akU2-42" edge="1">
          <mxGeometry width="50" height="50" relative="1" as="geometry">
            <mxPoint x="550" y="320" as="sourcePoint" />
            <mxPoint x="600" y="270" as="targetPoint" />
          </mxGeometry>
        </mxCell>
        <mxCell id="s7xaixTbj5X07XG7akU2-46" value="" style="endArrow=none;dashed=1;html=1;dashPattern=1 3;strokeWidth=2;exitX=0;exitY=1;exitDx=0;exitDy=0;entryX=1;entryY=0;entryDx=0;entryDy=0;" parent="1" source="s7xaixTbj5X07XG7akU2-42" target="s7xaixTbj5X07XG7akU2-33" edge="1">
          <mxGeometry width="50" height="50" relative="1" as="geometry">
            <mxPoint x="550" y="320" as="sourcePoint" />
            <mxPoint x="600" y="270" as="targetPoint" />
          </mxGeometry>
        </mxCell>
        <mxCell id="s7xaixTbj5X07XG7akU2-47" value="вкл" style="text;html=1;strokeColor=none;fillColor=none;align=center;verticalAlign=middle;whiteSpace=wrap;rounded=0;rotation=-15;" parent="1" vertex="1">
          <mxGeometry x="860" y="320" width="30" height="18.54" as="geometry" />
        </mxCell>
        <mxCell id="s7xaixTbj5X07XG7akU2-50" value="Удержание 1% от стоимости" style="ellipse;whiteSpace=wrap;html=1;fillColor=#d5e8d4;strokeColor=#82b366;" parent="1" vertex="1">
          <mxGeometry x="770" y="100" width="180" height="30" as="geometry" />
        </mxCell>
        <mxCell id="s7xaixTbj5X07XG7akU2-51" value="" style="endArrow=none;dashed=1;html=1;dashPattern=1 3;strokeWidth=2;exitX=0.5;exitY=0;exitDx=0;exitDy=0;entryX=0.5;entryY=1;entryDx=0;entryDy=0;" parent="1" source="s7xaixTbj5X07XG7akU2-42" target="s7xaixTbj5X07XG7akU2-50" edge="1">
          <mxGeometry width="50" height="50" relative="1" as="geometry">
            <mxPoint x="550" y="320" as="sourcePoint" />
            <mxPoint x="600" y="270" as="targetPoint" />
          </mxGeometry>
        </mxCell>
        <mxCell id="s7xaixTbj5X07XG7akU2-52" value="вкл" style="text;html=1;strokeColor=none;fillColor=none;align=center;verticalAlign=middle;whiteSpace=wrap;rounded=0;rotation=65;" parent="1" vertex="1">
          <mxGeometry x="900" y="200" width="30" height="18.54" as="geometry" />
        </mxCell>
        <mxCell id="s7xaixTbj5X07XG7akU2-53" value="Обмен билета" style="ellipse;whiteSpace=wrap;html=1;fillColor=#fff2cc;strokeColor=#d6b656;" parent="1" vertex="1">
          <mxGeometry x="882.5" y="570" width="150" height="40" as="geometry" />
        </mxCell>
        <mxCell id="s7xaixTbj5X07XG7akU2-54" value="" style="endArrow=none;dashed=1;html=1;dashPattern=1 3;strokeWidth=2;exitX=0.5;exitY=0;exitDx=0;exitDy=0;entryX=0.5;entryY=1;entryDx=0;entryDy=0;" parent="1" source="s7xaixTbj5X07XG7akU2-53" target="s7xaixTbj5X07XG7akU2-42" edge="1">
          <mxGeometry width="50" height="50" relative="1" as="geometry">
            <mxPoint x="550" y="410" as="sourcePoint" />
            <mxPoint x="600" y="360" as="targetPoint" />
          </mxGeometry>
        </mxCell>
        <mxCell id="s7xaixTbj5X07XG7akU2-55" value="расш" style="text;html=1;strokeColor=none;fillColor=none;align=center;verticalAlign=middle;whiteSpace=wrap;rounded=0;rotation=90;" parent="1" vertex="1">
          <mxGeometry x="950" y="410" width="30" height="20" as="geometry" />
        </mxCell>
        <mxCell id="s7xaixTbj5X07XG7akU2-57" style="edgeStyle=orthogonalEdgeStyle;rounded=0;orthogonalLoop=1;jettySize=auto;html=1;exitX=0.5;exitY=0;exitDx=0;exitDy=0;exitPerimeter=0;entryX=0.5;entryY=0;entryDx=0;entryDy=0;endArrow=none;endFill=0;dashed=1;" parent="1" source="s7xaixTbj5X07XG7akU2-56" target="s7xaixTbj5X07XG7akU2-55" edge="1">
          <mxGeometry relative="1" as="geometry" />
        </mxCell>
        <mxCell id="s7xaixTbj5X07XG7akU2-56" value="&lt;b&gt;Условие&lt;/b&gt;: наличие свободного места на новые дату и время&lt;br&gt;&lt;br&gt;&lt;b&gt;Расширение&lt;/b&gt;: возможность обмена на новый билет" style="shape=note;whiteSpace=wrap;html=1;backgroundOutline=1;darkOpacity=0.05;align=left;fillColor=#6d8764;strokeColor=#3A5431;fontColor=#ffffff;" parent="1" vertex="1">
          <mxGeometry x="1020" y="460" width="150" height="100" as="geometry" />
        </mxCell>
        <mxCell id="iseQByMHtWD9Y5202Liz-3" value="&lt;font style=&quot;font-size: 16px&quot;&gt;&lt;font style=&quot;font-size: 16px&quot;&gt;С&lt;/font&gt;ценарий. Возврат билета&lt;br&gt;&lt;br&gt;Главный алгоритм:&lt;br&gt;&lt;ul&gt;&lt;li&gt;выбираем в главном меню &quot;Возврат/обмен билета&quot;;&lt;/li&gt;&lt;li&gt;выбираем в подменю &quot;Возврат билета&quot;;&lt;/li&gt;&lt;li&gt;система показывает окно ввода данных (номер билета);&lt;/li&gt;&lt;li&gt;вводим данные (номер билета);&lt;/li&gt;&lt;li&gt;система подтверждает существование билета;&lt;/li&gt;&lt;li&gt;система выводит сообщение, об удержании 1%;&lt;/li&gt;&lt;li&gt;подтверждаем возврат билета, соглашаясь с удержанием;&lt;/li&gt;&lt;li&gt;подтверждение наличия паспорта;&amp;nbsp;&lt;/li&gt;&lt;li&gt;система отменяет покупку билета;&lt;/li&gt;&lt;li&gt;система возвращает деньги, списав издержку;&lt;/li&gt;&lt;li&gt;система выводит сообщение об успешной операции;&lt;/li&gt;&lt;li&gt;возврат в главное окно.&lt;/li&gt;&lt;/ul&gt;&lt;div&gt;Альтернативный алгоритм:&amp;nbsp;&lt;/div&gt;&lt;div&gt;&lt;ul&gt;&lt;li&gt;выбираем в главном меню &quot;Возврат/обмен билета&quot;;&lt;/li&gt;&lt;li&gt;выбираем в подменю &quot;Возврат билета&quot;;&lt;/li&gt;&lt;li&gt;система показывает окно ввода данных (номер билета);&lt;/li&gt;&lt;li&gt;вводим данные (номер билета);&lt;/li&gt;&lt;li&gt;система подтверждает&amp;nbsp;существование билета;&lt;/li&gt;&lt;li&gt;система выводит сообщение, об удержании 1%;&lt;/li&gt;&lt;li&gt;подтверждаем возврат билета, соглашаясь с удержанием;&lt;/li&gt;&lt;li&gt;подтверждение наличия паспорта;&amp;nbsp;&lt;/li&gt;&lt;li&gt;система выводит сообщение об отказе возврата с пояснением причин;&lt;/li&gt;&lt;li&gt;система выводит предложение повторить попытку;&lt;/li&gt;&lt;li&gt;соглашаемся с повторением попытки;&lt;/li&gt;&lt;li&gt;возврат в окно ввода данных.&lt;/li&gt;&lt;/ul&gt;&lt;div&gt;Альтернативный алгоритм:&lt;/div&gt;&lt;/div&gt;&lt;div&gt;&lt;ul&gt;&lt;li&gt;выбираем в главном меню &quot;Возврат/обмен билета&quot;;&lt;/li&gt;&lt;li&gt;выбираем в подменю &quot;Возврат билета&quot;;&lt;/li&gt;&lt;li&gt;система показывает окно ввода данных (номер билета);&lt;/li&gt;&lt;li&gt;вводим данные (номер билета);&lt;/li&gt;&lt;li&gt;система подтверждает&amp;nbsp;существование билета;&lt;/li&gt;&lt;li&gt;система выводит сообщение, об удержании 1%;&lt;/li&gt;&lt;li&gt;подтверждаем возврат билета, соглашаясь с удержанием;&lt;/li&gt;&lt;li&gt;подтверждение наличия паспорта;&amp;nbsp;&lt;/li&gt;&lt;li&gt;система выводит сообщение об отказе возврата с пояснением причин;&lt;/li&gt;&lt;li&gt;система выводит предложение повторить попытку;&lt;/li&gt;&lt;li&gt;отказываемся повторять попытку&lt;/li&gt;&lt;li&gt;возврат в главное окно.&lt;/li&gt;&lt;/ul&gt;&lt;div&gt;&lt;div&gt;Альтернативный алгоритм:&amp;nbsp;&lt;/div&gt;&lt;div&gt;&lt;ul&gt;&lt;li&gt;выбираем в главном меню &quot;Возврат/обмен билета&quot;;&lt;/li&gt;&lt;li&gt;выбираем в подменю &quot;Возврат билета&quot;;&lt;/li&gt;&lt;li&gt;система показывает окно ввода данных (номер билета);&lt;/li&gt;&lt;li&gt;вводим данные (номер билета);&lt;/li&gt;&lt;li&gt;система подтверждает&amp;nbsp;существование билета;&lt;/li&gt;&lt;li&gt;система выводит сообщение, об удержании 1%;&lt;/li&gt;&lt;li&gt;подтверждаем возврат билета, соглашаясь с удержанием;&lt;/li&gt;&lt;li&gt;предоставление чужого паспорта;&amp;nbsp;&lt;/li&gt;&lt;li&gt;система выводит сообщение об отказе возврата &quot;Предоставление ложных личных данных&quot;;&lt;/li&gt;&lt;li&gt;возврат в главное окно.&lt;/li&gt;&lt;/ul&gt;&lt;div&gt;&lt;div&gt;Альтернативный алгоритм:&amp;nbsp;&lt;/div&gt;&lt;div&gt;&lt;ul&gt;&lt;li&gt;выбираем в главном меню &quot;Возврат/обмен билета&quot;;&lt;/li&gt;&lt;li&gt;выбираем в подменю &quot;Возврат билета&quot;;&lt;/li&gt;&lt;li&gt;система показывает окно ввода данных (номер билета);&lt;/li&gt;&lt;li&gt;вводим данные (номер билета);&lt;/li&gt;&lt;li&gt;система подтверждает&amp;nbsp;существование билета;&lt;/li&gt;&lt;li&gt;система выводит сообщение, об удержании 1%;&lt;/li&gt;&lt;li&gt;подтверждаем возврат билета, соглашаясь с удержанием;&lt;/li&gt;&lt;li&gt;нет паспорта;&amp;nbsp;&lt;/li&gt;&lt;li&gt;система выводит сообщение об отказе возврата;&lt;/li&gt;&lt;li&gt;возврат в главное окно.&lt;/li&gt;&lt;/ul&gt;&lt;/div&gt;&lt;/div&gt;&lt;/div&gt;&lt;/div&gt;&lt;div&gt;Альтернативный алгоритм:&lt;/div&gt;&lt;div&gt;&lt;ul&gt;&lt;li&gt;выбираем в главном меню &quot;Возврат/обмен билета&quot;;&lt;/li&gt;&lt;li&gt;выбираем в подменю &quot;Возврат билета&quot;;&lt;/li&gt;&lt;li&gt;система показывает окно ввода данных (номер билета);&lt;/li&gt;&lt;li&gt;вводим данные (номер билета);&lt;/li&gt;&lt;li&gt;система подтверждает&amp;nbsp;существование билета;&lt;/li&gt;&lt;li&gt;система выводит сообщение, об удержании 1%;&lt;/li&gt;&lt;li&gt;выбираем &quot;Отмена&quot;;&lt;/li&gt;&lt;li&gt;возврат в главное окно.&lt;/li&gt;&lt;/ul&gt;&lt;div&gt;&lt;div&gt;Альтернативный алгоритм:&lt;/div&gt;&lt;div&gt;&lt;ul&gt;&lt;li&gt;выбираем в главном меню &quot;Возврат/обмен билета&quot;;&lt;/li&gt;&lt;li&gt;выбираем в подменю &quot;Возврат билета&quot;;&lt;/li&gt;&lt;li&gt;система показывает окно ввода данных (номер билета);&lt;/li&gt;&lt;li&gt;вводим данные (номер билета);&lt;/li&gt;&lt;li&gt;система не подтверждает существование билета;&lt;/li&gt;&lt;li&gt;выбираем &quot;Повторить попытку&quot;;&lt;/li&gt;&lt;li&gt;переход в окно ввода данных (номер билета).&lt;/li&gt;&lt;/ul&gt;&lt;div&gt;&lt;div&gt;Альтернативный алгоритм:&lt;/div&gt;&lt;div&gt;&lt;ul&gt;&lt;li&gt;выбираем в главном меню &quot;Возврат/обмен билета&quot;;&lt;/li&gt;&lt;li&gt;выбираем в подменю &quot;Возврат билета&quot;;&lt;/li&gt;&lt;li&gt;система показывает окно ввода данных (номер билета);&lt;/li&gt;&lt;li&gt;вводим данные (номер билета);&lt;/li&gt;&lt;li&gt;система не подтверждает существование билета;&lt;/li&gt;&lt;li&gt;выбираем &quot;Отмена&quot;;&lt;/li&gt;&lt;li&gt;переход в главное окно.&lt;/li&gt;&lt;/ul&gt;&lt;/div&gt;&lt;/div&gt;&lt;/div&gt;&lt;/div&gt;&lt;div&gt;Альтернативный алгоритм:&lt;/div&gt;&lt;/div&gt;&lt;div&gt;&lt;ul&gt;&lt;li&gt;выбираем в главном меню &quot;Возврат/обмен билета&quot;;&lt;/li&gt;&lt;li&gt;выбираем в подменю &quot;Возврат билета&quot;;&lt;/li&gt;&lt;li&gt;выбираем &quot;Отмена&quot;;&lt;/li&gt;&lt;li&gt;возврат в главное окно.&lt;/li&gt;&lt;/ul&gt;&lt;div&gt;Альтернативный алгоритм:&lt;/div&gt;&lt;/div&gt;&lt;div&gt;&lt;ul&gt;&lt;li&gt;выбираем в главном меню &quot;Возврат/обмен билета&quot;;&lt;/li&gt;&lt;li&gt;выбираем в подменю &quot;Обмен билета&quot;;&lt;/li&gt;&lt;li&gt;система показывает окно ввода данных (номер билета);&lt;/li&gt;&lt;li&gt;вводим данные (номер билета);&lt;/li&gt;&lt;li&gt;система подтверждает&amp;nbsp;существование билета;&lt;/li&gt;&lt;li&gt;переход в окно ввода данных (выбор рейса)&lt;/li&gt;&lt;li&gt;выбираем время/дату, на которые хотим обменять билет;&lt;/li&gt;&lt;li&gt;система подтверждает наличие свободных мест на этот рейс;&lt;/li&gt;&lt;li&gt;нажимаем &quot;Подтвердить&quot;;&lt;/li&gt;&lt;li&gt;подтверждение наличия паспорта;&amp;nbsp;&lt;/li&gt;&lt;li&gt;система обнуляет старый билет;&lt;/li&gt;&lt;li&gt;переход на сценарии &quot;Покупка/продажа билета&quot; (на место выбора рейса)&lt;/li&gt;&lt;/ul&gt;&lt;div&gt;&lt;div&gt;Альтернативный алгоритм:&lt;/div&gt;&lt;div&gt;&lt;ul&gt;&lt;li&gt;выбираем в главном меню &quot;Возврат/обмен билета&quot;;&lt;/li&gt;&lt;li&gt;выбираем в подменю &quot;Обмен билета&quot;;&lt;/li&gt;&lt;li&gt;система показывает окно ввода данных (номер билета);&lt;/li&gt;&lt;li&gt;вводим данные (номер билета);&lt;/li&gt;&lt;li&gt;система подтверждает&amp;nbsp;существование билета;&lt;/li&gt;&lt;li&gt;переход в окно ввода данных (выбор рейса)&lt;/li&gt;&lt;li&gt;выбираем время/дату, на которые хотим обменять билет;&lt;/li&gt;&lt;li&gt;система подтверждает наличие свободных мест на этот рейс;&lt;/li&gt;&lt;li&gt;нажимаем &quot;Подтвердить&quot;;&lt;/li&gt;&lt;li&gt;предоставление чужого паспорта;&amp;nbsp;&lt;/li&gt;&lt;li&gt;система выводит сообщение об отказе возврата &quot;Предоставление ложных личных данных&quot;;&lt;/li&gt;&lt;li&gt;возврат в главное окно.&lt;/li&gt;&lt;/ul&gt;&lt;div&gt;&lt;div&gt;Альтернативный алгоритм:&lt;/div&gt;&lt;div&gt;&lt;ul&gt;&lt;li&gt;выбираем в главном меню &quot;Возврат/обмен билета&quot;;&lt;/li&gt;&lt;li&gt;выбираем в подменю &quot;Обмен билета&quot;;&lt;/li&gt;&lt;li&gt;система показывает окно ввода данных (номер билета);&lt;/li&gt;&lt;li&gt;вводим данные (номер билета);&lt;/li&gt;&lt;li&gt;система подтверждает&amp;nbsp;существование билета;&lt;/li&gt;&lt;li&gt;переход в окно ввода данных (выбор рейса)&lt;/li&gt;&lt;li&gt;выбираем время/дату, на которые хотим обменять билет;&lt;/li&gt;&lt;li&gt;система подтверждает наличие свободных мест на этот рейс;&lt;/li&gt;&lt;li&gt;нажимаем &quot;Подтвердить&quot;;&lt;/li&gt;&lt;li&gt;нет паспорта;&amp;nbsp;&lt;/li&gt;&lt;li&gt;система выводит сообщение об отказе возврата;&lt;/li&gt;&lt;li&gt;возврат в главное окно.&lt;/li&gt;&lt;/ul&gt;&lt;/div&gt;&lt;/div&gt;&lt;/div&gt;&lt;/div&gt;&lt;div&gt;&lt;div&gt;Альтернативный алгоритм:&lt;/div&gt;&lt;div&gt;&lt;ul&gt;&lt;li&gt;выбираем в главном меню &quot;Возврат/обмен билета&quot;;&lt;/li&gt;&lt;li&gt;выбираем в подменю &quot;Обмен билета&quot;;&lt;/li&gt;&lt;li&gt;система показывает окно ввода данных (номер билета);&lt;/li&gt;&lt;li&gt;вводим данные (номер билета);&lt;/li&gt;&lt;li&gt;система подтверждает&amp;nbsp;существование билета;&lt;/li&gt;&lt;li&gt;переход в окно ввода данных (выбор рейса)&lt;/li&gt;&lt;li&gt;выбираем время/дату, на которые хотим обменять билет;&lt;/li&gt;&lt;li&gt;система подтверждает наличие свободных мест на этот рейс;&lt;/li&gt;&lt;li&gt;нажимаем &quot;Отмена&quot;;&lt;/li&gt;&lt;li&gt;возврат в главное окно.&lt;/li&gt;&lt;/ul&gt;&lt;div&gt;&lt;div&gt;Альтернативный алгоритм:&lt;/div&gt;&lt;div&gt;&lt;ul&gt;&lt;li&gt;выбираем в главном меню &quot;Возврат/обмен билета&quot;;&lt;/li&gt;&lt;li&gt;выбираем в подменю &quot;Обмен билета&quot;;&lt;/li&gt;&lt;li&gt;система показывает окно ввода данных (номер билета);&lt;/li&gt;&lt;li&gt;вводим данные (номер билета);&lt;/li&gt;&lt;li&gt;система подтверждает&amp;nbsp;существование билета;&lt;/li&gt;&lt;li&gt;переход в окно ввода данных (выбор рейса)&lt;/li&gt;&lt;li&gt;выбираем время/дату, на которые хотим обменять билет;&lt;/li&gt;&lt;li&gt;система выводит сообщение о том, что в наличии нет свободных мест на этот рейс;&lt;/li&gt;&lt;li&gt;выбираем &quot;Выбрать другой рейс&quot;&lt;/li&gt;&lt;li&gt;переход в окно ввода данных (выбор рейса)&lt;/li&gt;&lt;/ul&gt;&lt;div&gt;&lt;div&gt;Альтернативный алгоритм:&lt;/div&gt;&lt;div&gt;&lt;ul&gt;&lt;li&gt;выбираем в главном меню &quot;Возврат/обмен билета&quot;;&lt;/li&gt;&lt;li&gt;выбираем в подменю &quot;Обмен билета&quot;;&lt;/li&gt;&lt;li&gt;система показывает окно ввода данных (номер билета);&lt;/li&gt;&lt;li&gt;вводим данные (номер билета);&lt;/li&gt;&lt;li&gt;система подтверждает&amp;nbsp;существование билета;&lt;/li&gt;&lt;li&gt;переход в окно ввода данных (выбор рейса)&lt;/li&gt;&lt;li&gt;выбираем время/дату, на которые хотим обменять билет;&lt;/li&gt;&lt;li&gt;система выводит сообщение о том, что в наличии нет свободных мест на этот рейс;&lt;/li&gt;&lt;li&gt;выбираем &quot;Оформить возврат билета&quot;;&lt;/li&gt;&lt;li&gt;переход в окно ввода данных (номер билета).&lt;/li&gt;&lt;/ul&gt;&lt;div&gt;&lt;div&gt;Альтернативный алгоритм:&lt;/div&gt;&lt;div&gt;&lt;ul&gt;&lt;li&gt;выбираем в главном меню &quot;Возврат/обмен билета&quot;;&lt;/li&gt;&lt;li&gt;выбираем в подменю &quot;Обмен билета&quot;;&lt;/li&gt;&lt;li&gt;система показывает окно ввода данных (номер билета);&lt;/li&gt;&lt;li&gt;вводим данные (номер билета);&lt;/li&gt;&lt;li&gt;система подтверждает&amp;nbsp;существование билета;&lt;/li&gt;&lt;li&gt;переход в окно ввода данных (выбор рейса)&lt;/li&gt;&lt;li&gt;выбираем время/дату, на которые хотим обменять билет;&lt;/li&gt;&lt;li&gt;система выводит сообщение о том, что в наличии нет свободных мест на этот рейс;&lt;/li&gt;&lt;li&gt;выбираем &quot;Отменить&quot;;&lt;/li&gt;&lt;li&gt;переход в главное окно.&lt;/li&gt;&lt;/ul&gt;&lt;div&gt;&lt;div&gt;Альтернативный алгоритм:&lt;/div&gt;&lt;div&gt;&lt;ul&gt;&lt;li&gt;выбираем в главном меню &quot;Возврат/обмен билета&quot;;&lt;/li&gt;&lt;li&gt;выбираем в подменю &quot;Обмен билета&quot;;&lt;/li&gt;&lt;li&gt;система показывает окно ввода данных (номер билета);&lt;/li&gt;&lt;li&gt;вводим данные (номер билета);&lt;/li&gt;&lt;li&gt;система не подтверждает существование билета;&lt;/li&gt;&lt;li&gt;выбираем &quot;Повторить попытку&quot;;&lt;/li&gt;&lt;li&gt;переход в окно ввода данных (номер билета).&lt;/li&gt;&lt;/ul&gt;&lt;div&gt;&lt;div&gt;Альтернативный алгоритм:&lt;/div&gt;&lt;div&gt;&lt;ul&gt;&lt;li&gt;выбираем в главном меню &quot;Возврат/обмен билета&quot;;&lt;/li&gt;&lt;li&gt;выбираем в подменю &quot;Обмен билета&quot;;&lt;/li&gt;&lt;li&gt;система показывает окно ввода данных (номер билета);&lt;/li&gt;&lt;li&gt;вводим данные (номер билета);&lt;/li&gt;&lt;li&gt;система не подтверждает существование билета;&lt;/li&gt;&lt;li&gt;выбираем &quot;Отмена&quot;;&lt;/li&gt;&lt;li&gt;переход в главное окно.&lt;/li&gt;&lt;/ul&gt;&lt;div&gt;&lt;div&gt;Альтернативный алгоритм:&lt;/div&gt;&lt;div&gt;&lt;ul&gt;&lt;li&gt;выбираем в главном меню &quot;Возврат/обмен билета&quot;;&lt;/li&gt;&lt;li&gt;выбираем в подменю &quot;Обмен билета&quot;;&lt;/li&gt;&lt;li&gt;система показывает окно ввода данных (номер билета);&lt;/li&gt;&lt;li&gt;нажимаем &quot;Отмена&quot;&lt;/li&gt;&lt;li&gt;возврат в главное окно.&lt;/li&gt;&lt;/ul&gt;&lt;div&gt;Сценарий. Покупка билета.&lt;/div&gt;&lt;/div&gt;&lt;/div&gt;&lt;/div&gt;&lt;/div&gt;&lt;/div&gt;&lt;/div&gt;&lt;/div&gt;&lt;/div&gt;&lt;/div&gt;&lt;/div&gt;&lt;/div&gt;&lt;/div&gt;&lt;/div&gt;&lt;/div&gt;&lt;/div&gt;&lt;div&gt;&lt;br&gt;&lt;/div&gt;&lt;div&gt;Главный алгоритм:&lt;/div&gt;&lt;div&gt;&lt;ul&gt;&lt;li&gt;выбираем в главном меню &quot;Купить билет&quot;;&lt;/li&gt;&lt;li&gt;переход в окно ввода данных (выбор рейса);&lt;br&gt;&lt;/li&gt;&lt;li&gt;вводи города отправки и места назначения;&lt;/li&gt;&lt;li&gt;вводим желаемые даты/время;&lt;/li&gt;&lt;li&gt;система выводит доступные рейсы;&lt;/li&gt;&lt;li&gt;выбираем нужный рейс;&lt;/li&gt;&lt;li&gt;переход в окно ввода личных данных;&lt;/li&gt;&lt;li&gt;вводим данные паспорта;&lt;/li&gt;&lt;li&gt;система подтверждает данные паспорта;&lt;/li&gt;&lt;li&gt;переход в окно &quot;Скидка&quot;;&lt;/li&gt;&lt;li&gt;вводим данные студенческого/пенсионного;&lt;/li&gt;&lt;li&gt;система подтверждает данные студенческого/пенсионного;&lt;/li&gt;&lt;li&gt;выбираем &quot;Подтвердить заказ&quot;;&lt;/li&gt;&lt;li&gt;система обрабатывает заказ;&lt;/li&gt;&lt;li&gt;сообщение об успешном завершении операции, с выводом данных Вашего рейса;&lt;/li&gt;&lt;li&gt;возврат в главное окно.&lt;/li&gt;&lt;/ul&gt;&lt;div&gt;Альтернативный алгоритм:&lt;/div&gt;&lt;/div&gt;&lt;div&gt;&lt;ul&gt;&lt;li&gt;выбираем в главном меню &quot;Купить билет&quot;;&lt;/li&gt;&lt;li&gt;переход в окно ввода данных (выбор рейса);&lt;br&gt;&lt;/li&gt;&lt;li&gt;вводи города отправки и места назначения;&lt;/li&gt;&lt;li&gt;вводим желаемые даты/время;&lt;/li&gt;&lt;li&gt;система выводит доступные рейсы;&lt;/li&gt;&lt;li&gt;выбираем нужный рейс;&lt;/li&gt;&lt;li&gt;переход в окно ввода личных данных;&lt;/li&gt;&lt;li&gt;вводим данные паспорта;&lt;/li&gt;&lt;li&gt;система подтверждает данные паспорта;&lt;/li&gt;&lt;li&gt;переход в окно &quot;Скидка&quot;;&lt;/li&gt;&lt;li&gt;вводим данные студенческого/пенсионного;&lt;/li&gt;&lt;li&gt;система подтверждает данные студенческого/пенсионного;&lt;/li&gt;&lt;li&gt;выбираем &quot;Подтвердить заказ&quot;;&lt;/li&gt;&lt;li&gt;система обрабатывает заказ;&lt;/li&gt;&lt;li&gt;сообщение об ошибке, с выводом причин;&lt;/li&gt;&lt;li&gt;выбираем &quot;Отмена&quot;;&lt;/li&gt;&lt;li&gt;возврат в главное окно.&lt;/li&gt;&lt;/ul&gt;&lt;/div&gt;&lt;div&gt;&lt;div&gt;Альтернативный алгоритм:&lt;/div&gt;&lt;div&gt;&lt;ul&gt;&lt;li&gt;выбираем в главном меню &quot;Купить билет&quot;;&lt;/li&gt;&lt;li&gt;переход в окно ввода данных (выбор рейса);&lt;br&gt;&lt;/li&gt;&lt;li&gt;вводи города отправки и места назначения;&lt;/li&gt;&lt;li&gt;вводим желаемые даты/время;&lt;/li&gt;&lt;li&gt;система выводит доступные рейсы;&lt;/li&gt;&lt;li&gt;выбираем нужный рейс;&lt;/li&gt;&lt;li&gt;переход в окно ввода личных данных;&lt;/li&gt;&lt;li&gt;вводим данные паспорта;&lt;/li&gt;&lt;li&gt;система подтверждает данные паспорта;&lt;/li&gt;&lt;li&gt;переход в окно &quot;Скидка&quot;;&lt;/li&gt;&lt;li&gt;вводим данные студенческого/пенсионного;&lt;/li&gt;&lt;li&gt;система подтверждает данные студенческого/пенсионного;&lt;/li&gt;&lt;li&gt;выбираем &quot;Подтвердить заказ&quot;;&lt;/li&gt;&lt;li&gt;система обрабатывает заказ;&lt;/li&gt;&lt;li&gt;сообщение об ошибке, с выводом причин;&lt;/li&gt;&lt;li&gt;выбираем &quot;Повторить попытку&quot;;&lt;/li&gt;&lt;li&gt;возврат в обработку заказа.&lt;/li&gt;&lt;/ul&gt;&lt;div&gt;&lt;div&gt;Альтернативный алгоритм:&lt;/div&gt;&lt;div&gt;&lt;ul&gt;&lt;li&gt;выбираем в главном меню &quot;Купить билет&quot;;&lt;/li&gt;&lt;li&gt;переход в окно ввода данных (выбор рейса);&lt;br&gt;&lt;/li&gt;&lt;li&gt;вводи города отправки и места назначения;&lt;/li&gt;&lt;li&gt;вводим желаемые даты/время;&lt;/li&gt;&lt;li&gt;система выводит доступные рейсы;&lt;/li&gt;&lt;li&gt;выбираем нужный рейс;&lt;/li&gt;&lt;li&gt;переход в окно ввода личных данных;&lt;/li&gt;&lt;li&gt;вводим данные паспорта;&lt;/li&gt;&lt;li&gt;система подтверждает данные паспорта;&lt;/li&gt;&lt;li&gt;переход в окно &quot;Скидка&quot;;&lt;/li&gt;&lt;li&gt;вводим данные студенческого/пенсионного;&lt;/li&gt;&lt;li&gt;система не подтверждает данные студенческого/пенсионного;&lt;/li&gt;&lt;li&gt;сообщение о неверно введённых данных;&lt;/li&gt;&lt;li&gt;выбираем &quot;Повторить попытку&quot;;&lt;/li&gt;&lt;li&gt;возврат в окно &quot;Скидка&quot;.&lt;/li&gt;&lt;/ul&gt;&lt;div&gt;&lt;div&gt;&lt;div&gt;Альтернативный алгоритм:&lt;/div&gt;&lt;div&gt;&lt;ul&gt;&lt;li&gt;выбираем в главном меню &quot;Купить билет&quot;;&lt;/li&gt;&lt;li&gt;переход в окно ввода данных (выбор рейса);&lt;br&gt;&lt;/li&gt;&lt;li&gt;вводи города отправки и места назначения;&lt;/li&gt;&lt;li&gt;вводим желаемые даты/время;&lt;/li&gt;&lt;li&gt;система выводит доступные рейсы;&lt;/li&gt;&lt;li&gt;выбираем нужный рейс;&lt;/li&gt;&lt;li&gt;переход в окно ввода личных данных;&lt;/li&gt;&lt;li&gt;вводим данные паспорта;&lt;/li&gt;&lt;li&gt;система подтверждает данные паспорта;&lt;/li&gt;&lt;li&gt;переход в окно &quot;Скидка&quot;;&lt;/li&gt;&lt;li&gt;вводим данные студенческого/пенсионного;&lt;/li&gt;&lt;li&gt;система не подтверждает данные студенческого/пенсионного;&lt;/li&gt;&lt;li&gt;сообщение о неверно введённых данных;&lt;/li&gt;&lt;li&gt;выбираем &quot;Отмена&quot;;&lt;/li&gt;&lt;li&gt;возврат в окно ввода личных данных;&lt;/li&gt;&lt;li&gt;выбираем &quot;Подтвердить заказ&quot;;&lt;/li&gt;&lt;li&gt;сообщение об успешном завершении операции, с выводом данных Вашего рейса;&lt;/li&gt;&lt;li&gt;возврат в главное окно.&lt;/li&gt;&lt;/ul&gt;&lt;div&gt;&lt;div&gt;Альтернативный алгоритм:&lt;/div&gt;&lt;div&gt;&lt;ul&gt;&lt;li&gt;выбираем в главном меню &quot;Купить билет&quot;;&lt;/li&gt;&lt;li&gt;переход в окно ввода данных (выбор рейса);&lt;br&gt;&lt;/li&gt;&lt;li&gt;вводи города отправки и места назначения;&lt;/li&gt;&lt;li&gt;вводим желаемые даты/время;&lt;/li&gt;&lt;li&gt;система выводит доступные рейсы;&lt;/li&gt;&lt;li&gt;выбираем нужный рейс;&lt;/li&gt;&lt;li&gt;переход в окно ввода личных данных;&lt;/li&gt;&lt;li&gt;вводим данные паспорта;&lt;/li&gt;&lt;li&gt;система подтверждает данные паспорта;&lt;/li&gt;&lt;li&gt;выбираем &quot;Подтвердить заказ&quot;;&lt;/li&gt;&lt;li&gt;сообщение об успешном завершении операции, с выводом данных Вашего рейса;&lt;/li&gt;&lt;li&gt;возврат в главное окно.&lt;/li&gt;&lt;/ul&gt;&lt;div&gt;&lt;div&gt;Альтернативный алгоритм:&lt;/div&gt;&lt;div&gt;&lt;ul&gt;&lt;li&gt;выбираем в главном меню &quot;Купить билет&quot;;&lt;/li&gt;&lt;li&gt;переход в окно ввода данных (выбор рейса);&lt;br&gt;&lt;/li&gt;&lt;li&gt;вводи города отправки и места назначения;&lt;/li&gt;&lt;li&gt;вводим желаемые даты/время;&lt;/li&gt;&lt;li&gt;система выводит доступные рейсы;&lt;/li&gt;&lt;li&gt;выбираем нужный рейс;&lt;/li&gt;&lt;li&gt;переход в окно ввода личных данных;&lt;/li&gt;&lt;li&gt;вводим данные паспорта;&lt;/li&gt;&lt;li&gt;система не подтверждает данные паспорта;&lt;/li&gt;&lt;li&gt;сообщение о неверно введённых данных;&lt;/li&gt;&lt;li&gt;выбираем &quot;Повторить попытку&quot;;&lt;/li&gt;&lt;li&gt;возврат в окно ввода личных данных.&lt;/li&gt;&lt;/ul&gt;&lt;div&gt;&lt;div&gt;Альтернативный алгоритм:&lt;/div&gt;&lt;div&gt;&lt;ul&gt;&lt;li&gt;выбираем в главном меню &quot;Купить билет&quot;;&lt;/li&gt;&lt;li&gt;переход в окно ввода данных (выбор рейса);&lt;br&gt;&lt;/li&gt;&lt;li&gt;вводи города отправки и места назначения;&lt;/li&gt;&lt;li&gt;вводим желаемые даты/время;&lt;/li&gt;&lt;li&gt;система выводит доступные рейсы;&lt;/li&gt;&lt;li&gt;выбираем нужный рейс;&lt;/li&gt;&lt;li&gt;переход в окно ввода личных данных;&lt;/li&gt;&lt;li&gt;вводим данные паспорта;&lt;/li&gt;&lt;li&gt;система не подтверждает данные паспорта;&lt;/li&gt;&lt;li&gt;сообщение о неверно введённых данных;&lt;/li&gt;&lt;li&gt;выбираем &quot;Отмена&quot;;&lt;/li&gt;&lt;li&gt;возврат в главное окно.&lt;/li&gt;&lt;/ul&gt;&lt;div&gt;&lt;div&gt;Альтернативный алгоритм:&lt;/div&gt;&lt;div&gt;&lt;ul&gt;&lt;li&gt;выбираем в главном меню &quot;Купить билет&quot;;&lt;/li&gt;&lt;li&gt;переход в окно ввода данных (выбор рейса);&lt;br&gt;&lt;/li&gt;&lt;li&gt;вводи города отправки и места назначения;&lt;/li&gt;&lt;li&gt;вводим желаемые даты/время;&lt;/li&gt;&lt;li&gt;система выводит доступные рейсы;&lt;/li&gt;&lt;li&gt;выбираем нужный рейс;&lt;/li&gt;&lt;li&gt;переход в окно ввода личных данных;&lt;/li&gt;&lt;li&gt;вводим данные паспорта;&lt;/li&gt;&lt;li&gt;система указывает, что введены данные другого человека;&lt;/li&gt;&lt;li&gt;сообщение о введении ложных данных;&lt;/li&gt;&lt;li&gt;возврат в главное окно.&lt;/li&gt;&lt;/ul&gt;&lt;div&gt;&lt;div&gt;Альтернативный алгоритм:&lt;/div&gt;&lt;div&gt;&lt;ul&gt;&lt;li&gt;выбираем в главном меню &quot;Купить билет&quot;;&lt;/li&gt;&lt;li&gt;переход в окно ввода данных (выбор рейса);&lt;br&gt;&lt;/li&gt;&lt;li&gt;вводи города отправки и места назначения;&lt;/li&gt;&lt;li&gt;вводим желаемые даты/время;&lt;/li&gt;&lt;li&gt;система выводит сообщение, что доступных рейсов на эти дату/время нет;&lt;/li&gt;&lt;li&gt;выбираем &quot;Изменить данные&quot;;&lt;/li&gt;&lt;li&gt;возврат в окно ввода данных (выбор рейса).&lt;/li&gt;&lt;/ul&gt;&lt;div&gt;&lt;div&gt;Альтернативный алгоритм:&lt;/div&gt;&lt;div&gt;&lt;ul&gt;&lt;li&gt;выбираем в главном меню &quot;Купить билет&quot;;&lt;/li&gt;&lt;li&gt;переход в окно ввода данных (выбор рейса);&lt;br&gt;&lt;/li&gt;&lt;li&gt;вводи города отправки и места назначения;&lt;/li&gt;&lt;li&gt;вводим желаемые даты/время;&lt;/li&gt;&lt;li&gt;система выводит сообщение, что доступных рейсов на эти дату/время нет;&lt;/li&gt;&lt;li&gt;выбираем &quot;Отмена&quot;;&lt;/li&gt;&lt;li&gt;возврат в главное окно.&lt;/li&gt;&lt;/ul&gt;&lt;div&gt;&lt;div&gt;Альтернативный алгоритм:&lt;/div&gt;&lt;div&gt;&lt;ul&gt;&lt;li&gt;выбираем в главном меню &quot;Купить билет&quot;;&lt;/li&gt;&lt;li&gt;переход в окно ввода данных (выбор рейса);&lt;/li&gt;&lt;li&gt;выбираем &quot;Отмена&quot;;&lt;/li&gt;&lt;li&gt;возврат в главное меню.&lt;/li&gt;&lt;/ul&gt;&lt;div&gt;Сценарий. Закрытие кассы на ТП.&lt;/div&gt;&lt;/div&gt;&lt;/div&gt;&lt;div&gt;&lt;br&gt;&lt;/div&gt;&lt;div&gt;Главный алгоритм:&lt;/div&gt;&lt;div&gt;&lt;ul&gt;&lt;li&gt;выбираем в главном меню &quot;Закрыть кассу на ТП&quot;;&lt;/li&gt;&lt;li&gt;система выводит состояние всех касс;&lt;/li&gt;&lt;li&gt;переход в окно выбора кассы, которую нужно закрыть;&lt;/li&gt;&lt;li&gt;выбираем нужную кассу;&lt;/li&gt;&lt;li&gt;система подтверждает закрытие текущей заявки;&lt;/li&gt;&lt;li&gt;&amp;nbsp;сообщение об успешном завершении операции;&lt;/li&gt;&lt;li&gt;возврат в главное окно.&lt;/li&gt;&lt;/ul&gt;&lt;div&gt;Альтернативный алгоритм:&lt;/div&gt;&lt;/div&gt;&lt;div&gt;&lt;ul&gt;&lt;li&gt;выбираем в главном меню &quot;Закрыть кассу на ТП&quot;;&lt;/li&gt;&lt;li&gt;система выводит состояние всех касс;&lt;/li&gt;&lt;li&gt;переход в окно выбора кассы, которую нужно закрыть;&lt;/li&gt;&lt;li&gt;выбираем нужную кассу;&lt;/li&gt;&lt;li&gt;система не подтверждает закрытие текущей заявки;&lt;/li&gt;&lt;li&gt;&amp;nbsp;сообщение о не закрытой заявке;&lt;/li&gt;&lt;li&gt;возврат в алгоритм &quot;Покупка билета&quot;/&quot;Возврат/обмен билета&quot;.&lt;/li&gt;&lt;/ul&gt;&lt;div&gt;&lt;div&gt;Альтернативный алгоритм:&lt;/div&gt;&lt;div&gt;&lt;ul&gt;&lt;li&gt;выбираем в главном меню &quot;Закрыть кассу на ТП&quot;;&lt;/li&gt;&lt;li&gt;система выводит состояние всех касс;&lt;/li&gt;&lt;li&gt;&lt;span&gt;сообщение, что других открытых касс нет;&lt;/span&gt;&lt;/li&gt;&lt;li&gt;&lt;span&gt;выбираем &quot;Открыть кассу&quot;&lt;/span&gt;&lt;br&gt;&lt;/li&gt;&lt;li&gt;переход в окно выбора кассы, которую нужно открыть;&lt;/li&gt;&lt;li&gt;сообщение об успешном открытии кассы;&lt;/li&gt;&lt;li&gt;переход в окно выбора кассы, которую нужно закрыть.&lt;/li&gt;&lt;/ul&gt;&lt;div&gt;&lt;div&gt;Альтернативный алгоритм:&lt;/div&gt;&lt;div&gt;&lt;ul&gt;&lt;li&gt;выбираем в главном меню &quot;Закрыть кассу на ТП&quot;;&lt;/li&gt;&lt;li&gt;система выводит состояние всех касс;&lt;/li&gt;&lt;li&gt;нажимаем &quot;Отмена&quot;;&lt;/li&gt;&lt;li&gt;возврат в главное окно.&lt;/li&gt;&lt;/ul&gt;&lt;div&gt;Сценарий. Закрытие кассы.&lt;/div&gt;&lt;/div&gt;&lt;/div&gt;&lt;/div&gt;&lt;/div&gt;&lt;div&gt;&lt;br&gt;&lt;/div&gt;&lt;div&gt;Главный алгоритм:&lt;/div&gt;&lt;div&gt;&lt;ul&gt;&lt;li&gt;выбираем в главном меню &quot;Закрыть кассу&quot;;&lt;/li&gt;&lt;li&gt;система выводит состояние всех касс;&lt;/li&gt;&lt;li&gt;переход в окно выбора кассы, которую нужно закрыть;&lt;/li&gt;&lt;li&gt;выбираем нужную кассу;&lt;/li&gt;&lt;li&gt;система подтверждает закрытие текущей заявки;&lt;/li&gt;&lt;li&gt;подтверждение окончания рабочей смены;&lt;/li&gt;&lt;li&gt;сообщение об успешном завершении операции;&lt;/li&gt;&lt;li&gt;возврат в главное окно.&lt;/li&gt;&lt;/ul&gt;&lt;div&gt;Альтернативный алгоритм:&lt;/div&gt;&lt;/div&gt;&lt;/div&gt;&lt;/div&gt;&lt;/div&gt;&lt;/div&gt;&lt;/div&gt;&lt;/div&gt;&lt;/div&gt;&lt;/div&gt;&lt;/div&gt;&lt;/div&gt;&lt;/div&gt;&lt;/div&gt;&lt;/div&gt;&lt;/div&gt;&lt;/div&gt;&lt;div&gt;&lt;ul&gt;&lt;li&gt;выбираем в главном меню &quot;Закрыть кассу&quot;;&lt;/li&gt;&lt;li&gt;система выводит состояние всех касс;&lt;/li&gt;&lt;li&gt;переход в окно выбора кассы, которую нужно закрыть;&lt;/li&gt;&lt;li&gt;выбираем нужную кассу;&lt;/li&gt;&lt;li&gt;система подтверждает закрытие текущей заявки;&lt;/li&gt;&lt;li&gt;Рабочая смена не закончена;&lt;/li&gt;&lt;li&gt;сообщение о том, через сколько закончится смена;&lt;/li&gt;&lt;li&gt;автоматическая отмена операции;&lt;/li&gt;&lt;li&gt;возврат в главное окно.&lt;/li&gt;&lt;/ul&gt;&lt;div&gt;&lt;div&gt;Альтернативный алгоритм:&lt;/div&gt;&lt;div&gt;&lt;ul&gt;&lt;li&gt;выбираем в главном меню &quot;Закрыть кассу&quot;;&lt;/li&gt;&lt;li&gt;система выводит состояние всех касс;&lt;/li&gt;&lt;li&gt;переход в окно выбора кассы, которую нужно закрыть;&lt;/li&gt;&lt;li&gt;выбираем нужную кассу;&lt;/li&gt;&lt;li&gt;система не подтверждает закрытие текущей заявки;&lt;/li&gt;&lt;li&gt;возврат в алгоритм &quot;Покупка билета&quot;/&quot;Возврат/обмен билета&quot;.&lt;/li&gt;&lt;/ul&gt;&lt;div&gt;&lt;div&gt;Альтернативный алгоритм:&lt;/div&gt;&lt;div&gt;&lt;ul&gt;&lt;li&gt;выбираем в главном меню &quot;Закрыть кассу&quot;;&lt;/li&gt;&lt;li&gt;система выводит состояние всех касс;&lt;/li&gt;&lt;li&gt;переход в окно выбора кассы, которую нужно закрыть;&lt;/li&gt;&lt;li&gt;выбираем нужную кассу;&lt;/li&gt;&lt;li&gt;система не подтверждает закрытие текущей заявки;&lt;/li&gt;&lt;li&gt;возврат в алгоритм &quot;Покупка билета&quot;/&quot;Возврат/обмен билета&quot;.&lt;/li&gt;&lt;/ul&gt;&lt;/div&gt;&lt;/div&gt;&lt;/div&gt;&lt;/div&gt;&lt;/div&gt;&lt;div&gt;&lt;div&gt;Альтернативный алгоритм:&lt;/div&gt;&lt;div&gt;&lt;ul&gt;&lt;li&gt;выбираем в главном меню &quot;Закрыть кассу&quot;;&lt;/li&gt;&lt;li&gt;система выводит состояние всех касс;&lt;/li&gt;&lt;li&gt;нажимаем &quot;Отмена&quot;;&lt;/li&gt;&lt;li&gt;возврат в главное окно.&lt;/li&gt;&lt;/ul&gt;&lt;div&gt;Сценарий. Отчёт.&lt;/div&gt;&lt;div&gt;&lt;br&gt;&lt;/div&gt;&lt;div&gt;Главный алгоритм:&lt;/div&gt;&lt;div&gt;&lt;ul&gt;&lt;li&gt;выбираем в главном меню &quot;Отчёт по билетам&quot;;&lt;/li&gt;&lt;li&gt;выбираем &quot;Создать отчёт&quot;;&lt;/li&gt;&lt;li&gt;система формирует отчёт по проданным билетам за сегодня;&lt;/li&gt;&lt;li&gt;система выводит отчёт на экран;&lt;/li&gt;&lt;li&gt;проверяем отчёт на наличие ошибок;&lt;/li&gt;&lt;li&gt;&lt;span&gt;выбираем &quot;Сохранить&quot;;&lt;/span&gt;&lt;br&gt;&lt;/li&gt;&lt;li&gt;система сохраняет новый отчёт в архив;&lt;/li&gt;&lt;li&gt;переход в окно выбора дальнейших действий с отчётом;&lt;/li&gt;&lt;li&gt;нажимаем &quot;Выход&quot;;&lt;/li&gt;&lt;li&gt;возврат в главное окно.&lt;/li&gt;&lt;/ul&gt;&lt;div&gt;Альтернативный алгоритм:&lt;/div&gt;&lt;/div&gt;&lt;div&gt;&lt;ul&gt;&lt;li&gt;выбираем в главном меню &quot;Отчёт по билетам&quot;;&lt;/li&gt;&lt;li&gt;выбираем &quot;Создать отчёт&quot;;&lt;/li&gt;&lt;li&gt;система формирует отчёт по проданным билетам за сегодня;&lt;/li&gt;&lt;li&gt;система выводит отчёт на экран;&lt;/li&gt;&lt;li&gt;проверяем отчёт на наличие ошибок;&lt;/li&gt;&lt;li&gt;выбираем &quot;Сохранить&quot;;&lt;/li&gt;&lt;li&gt;система сохраняет новый отчёт в архив;&lt;/li&gt;&lt;li&gt;нажимаем &quot;Продолжить&quot;;&lt;/li&gt;&lt;li&gt;переход в окно выбора дальнейших действий с отчётом;&lt;/li&gt;&lt;li&gt;выбираем &quot;Отправить&quot;;&lt;/li&gt;&lt;li&gt;система показывает окно ввода данных (куда отправляем);&lt;/li&gt;&lt;li&gt;вводим данные;&lt;/li&gt;&lt;li&gt;система производит отправку;&lt;/li&gt;&lt;li&gt;система выводит сообщение об успешной отправке;&lt;/li&gt;&lt;li&gt;переход в окно выбора дальнейших действий с отчётом.&lt;/li&gt;&lt;/ul&gt;&lt;div&gt;&lt;div&gt;Альтернативный алгоритм:&lt;/div&gt;&lt;div&gt;&lt;ul&gt;&lt;li&gt;выбираем в главном меню &quot;Отчёт по билетам&quot;;&lt;/li&gt;&lt;li&gt;выбираем &quot;Создать отчёт&quot;;&lt;/li&gt;&lt;li&gt;система формирует отчёт по проданным билетам за сегодня;&lt;/li&gt;&lt;li&gt;система выводит отчёт на экран;&lt;/li&gt;&lt;li&gt;проверяем отчёт на наличие ошибок;&lt;/li&gt;&lt;li&gt;выбираем &quot;Сохранить&quot;;&lt;/li&gt;&lt;li&gt;система сохраняет новый отчёт в архив;&lt;/li&gt;&lt;li&gt;нажимаем &quot;Продолжить&quot;;&lt;/li&gt;&lt;li&gt;переход в окно выбора дальнейших действий с отчётом;&lt;/li&gt;&lt;li&gt;выбираем &quot;Печать&quot;;&lt;/li&gt;&lt;li&gt;система производит печать;&lt;/li&gt;&lt;li&gt;сообщение об успешной операции;&lt;/li&gt;&lt;li&gt;переход в окно выбора дальнейших действий с отчётом.&lt;/li&gt;&lt;/ul&gt;&lt;div&gt;&lt;div&gt;Альтернативный алгоритм:&lt;/div&gt;&lt;div&gt;&lt;ul&gt;&lt;li&gt;выбираем в главном меню &quot;Отчёт по билетам&quot;;&lt;/li&gt;&lt;li&gt;выбираем &quot;Создать отчёт&quot;;&lt;/li&gt;&lt;li&gt;система формирует отчёт по проданным билетам за сегодня;&lt;/li&gt;&lt;li&gt;система выводит отчёт на экран;&lt;/li&gt;&lt;li&gt;проверяем отчёт на наличие ошибок;&lt;/li&gt;&lt;li&gt;выбираем &quot;Сохранить&quot;;&lt;/li&gt;&lt;li&gt;система не сохраняет новый отчёт в архив;&lt;/li&gt;&lt;li&gt;сообщение &quot;Что-то пошло не так, повторить попытку?&quot;&lt;/li&gt;&lt;li&gt;выбираем &quot;Да&quot;&lt;/li&gt;&lt;li&gt;переход в формирование отчёта.&lt;/li&gt;&lt;/ul&gt;&lt;div&gt;&lt;div&gt;Альтернативный алгоритм:&lt;/div&gt;&lt;div&gt;&lt;ul&gt;&lt;li&gt;выбираем в главном меню &quot;Отчёт по билетам&quot;;&lt;/li&gt;&lt;li&gt;выбираем &quot;Создать отчёт&quot;;&lt;/li&gt;&lt;li&gt;система формирует отчёт по проданным билетам за сегодня;&lt;/li&gt;&lt;li&gt;система выводит отчёт на экран;&lt;/li&gt;&lt;li&gt;проверяем отчёт на наличие ошибок;&lt;/li&gt;&lt;li&gt;выбираем &quot;Сохранить&quot;;&lt;/li&gt;&lt;li&gt;система не сохраняет новый отчёт в архив;&lt;/li&gt;&lt;li&gt;сообщение &quot;Что-то пошло не так, повторить попытку?&quot;&lt;/li&gt;&lt;li&gt;выбираем &quot;Нет&quot;&lt;/li&gt;&lt;li&gt;возврат в главное окно.&lt;/li&gt;&lt;/ul&gt;&lt;div&gt;&lt;div&gt;Альтернативный алгоритм:&lt;/div&gt;&lt;div&gt;&lt;ul&gt;&lt;li&gt;выбираем в главном меню &quot;Отчёт по билетам&quot;;&lt;/li&gt;&lt;li&gt;выбираем &quot;Архив&quot;;&lt;/li&gt;&lt;li&gt;система переходит в архив отчётов;&lt;/li&gt;&lt;li&gt;выбираем нужный/нужные отчёты;&lt;/li&gt;&lt;li&gt;переход в окно выбора дальнейших действий с отчётом;&lt;br&gt;&lt;/li&gt;&lt;li&gt;выбираем &quot;Объединить отчёты&quot;;&lt;/li&gt;&lt;li&gt;система формирует ежемесячный/ежегодный отчёт;&lt;/li&gt;&lt;li&gt;система выводит отчёт на экран;&lt;/li&gt;&lt;li&gt;проверяем отчёт на ошибки;&lt;/li&gt;&lt;li&gt;выбираем &quot;Сохранить&quot;&lt;/li&gt;&lt;li&gt;переход в окно выбора дальнейших действий с отчётом.&lt;/li&gt;&lt;/ul&gt;&lt;div&gt;&lt;div&gt;Альтернативный алгоритм:&lt;/div&gt;&lt;div&gt;&lt;ul&gt;&lt;li&gt;выбираем в главном меню &quot;Отчёт по билетам&quot;;&lt;/li&gt;&lt;li&gt;выбираем &quot;Архив&quot;;&lt;/li&gt;&lt;li&gt;система переходит в архив отчётов;&lt;/li&gt;&lt;li&gt;выбираем нужный/нужные отчёты;&lt;/li&gt;&lt;li&gt;переход в окно выбора дальнейших действий с отчётом;&lt;br&gt;&lt;/li&gt;&lt;li&gt;выбираем &quot;Объединить отчёты&quot;;&lt;/li&gt;&lt;li&gt;система формирует ежемесячный/ежегодный отчёт;&lt;/li&gt;&lt;li&gt;система выводит сообщение об ошибки формирования;&lt;/li&gt;&lt;li&gt;система предлагает повторить попытку или вернуться назад;&lt;/li&gt;&lt;li&gt;нажимаем &quot;Повторить&quot;&lt;/li&gt;&lt;li&gt;система формирует ежемесячный/ежегодный отчёт.&lt;/li&gt;&lt;/ul&gt;&lt;div&gt;&lt;div&gt;Альтернативный алгоритм:&lt;/div&gt;&lt;div&gt;&lt;ul&gt;&lt;li&gt;выбираем в главном меню &quot;Отчёт по билетам&quot;;&lt;/li&gt;&lt;li&gt;выбираем &quot;Архив&quot;;&lt;/li&gt;&lt;li&gt;система переходит в архив отчётов;&lt;/li&gt;&lt;li&gt;выбираем нужный/нужные отчёты;&lt;/li&gt;&lt;li&gt;переход в окно выбора дальнейших действий с отчётом;&lt;br&gt;&lt;/li&gt;&lt;li&gt;выбираем &quot;Объединить отчёты&quot;;&lt;/li&gt;&lt;li&gt;система формирует ежемесячный/ежегодный отчёт;&lt;/li&gt;&lt;li&gt;система выводит сообщение об ошибки формирования;&lt;/li&gt;&lt;li&gt;система предлагает повторить попытку или вернуться назад;&lt;/li&gt;&lt;li&gt;нажимаем &quot;Назад&quot;&lt;/li&gt;&lt;li&gt;система переходит в архив отчётов.&lt;/li&gt;&lt;/ul&gt;&lt;div&gt;&lt;div&gt;Альтернативный алгоритм:&lt;/div&gt;&lt;div&gt;&lt;ul&gt;&lt;li&gt;выбираем в главном меню &quot;Отчёт по билетам&quot;;&lt;/li&gt;&lt;li&gt;выбираем &quot;Архив&quot;;&lt;/li&gt;&lt;li&gt;система переходит в архив отчётов;&lt;/li&gt;&lt;li&gt;выбираем &quot;Отмена&quot;;&lt;/li&gt;&lt;li&gt;возврат в главное окно.&lt;/li&gt;&lt;/ul&gt;&lt;/div&gt;&lt;/div&gt;&lt;/div&gt;&lt;/div&gt;&lt;/div&gt;&lt;/div&gt;&lt;/div&gt;&lt;/div&gt;&lt;/div&gt;&lt;/div&gt;&lt;/div&gt;&lt;/div&gt;&lt;/div&gt;&lt;/div&gt;&lt;/div&gt;&lt;div&gt;&lt;br&gt;&lt;/div&gt;&lt;div&gt;&lt;br&gt;&lt;/div&gt;&lt;/div&gt;&lt;/div&gt;&lt;/div&gt;&lt;/div&gt;&lt;/div&gt;&lt;div&gt;&lt;br&gt;&lt;/div&gt;&lt;div&gt;&lt;br&gt;&lt;/div&gt;&lt;/div&gt;&lt;/div&gt;&lt;div&gt;&lt;br&gt;&lt;/div&gt;&lt;div&gt;&lt;br&gt;&lt;/div&gt;&lt;div&gt;&lt;br&gt;&lt;/div&gt;&lt;/div&gt;&lt;/font&gt;" style="rounded=0;whiteSpace=wrap;html=1;align=left;" parent="1" vertex="1">
          <mxGeometry x="1250" y="-40" width="680" height="12400" as="geometry" />
        </mxCell>
      </root>
    </mxGraphModel>
  </diagram>
</mxfile>
